<?xml version="1.0" encoding="UTF-8" standalone="no"?>
<svg
   xmlns:dc="http://purl.org/dc/elements/1.1/"
   xmlns:cc="http://creativecommons.org/ns#"
   xmlns:rdf="http://www.w3.org/1999/02/22-rdf-syntax-ns#"
   xmlns:svg="http://www.w3.org/2000/svg"
   xmlns="http://www.w3.org/2000/svg"
   viewBox="0 0 266.66666 266.66666"
   height="266.66666"
   width="266.66666"
   xml:space="preserve"
   version="1.1"
   id="svg2"><metadata
     id="metadata8"><rdf:RDF><cc:Work
         rdf:about=""><dc:format>image/svg+xml</dc:format><dc:type
           rdf:resource="http://purl.org/dc/dcmitype/StillImage" /></cc:Work></rdf:RDF></metadata><defs
     id="defs6" /><g
     transform="matrix(1.3333333,0,0,-1.3333333,0,266.66667)"
     id="g10"><g
       transform="scale(0.1)"
       id="g12"><path
         id="path14"
         style="fill:#000000;fill-opacity:1;fill-rule:nonzero;stroke:none"
         d="m 1310.05,1023.62 c 0,-6.57 -6.94,-9.85 -20.82,-9.85 l -10.91,0 c -9.26,0 -26.12,0.33 -50.59,0.99 -24.46,0.65 -43.3,0.98 -56.53,0.98 -19.84,0 -42.98,-0.33 -69.43,-0.98 -27.11,0 -44.96,0 -53.56,0 l -6.94,0 c -13.88,0 -20.82,2.95 -20.82,8.86 0,6.57 9.58,9.86 28.76,9.86 33.72,0 54.22,3.61 61.49,10.83 3.3,3.29 4.96,25.29 4.96,66.01 l 0,510.34 c 0,-0.65 -3.64,-12.14 -10.91,-34.48 -26.45,-79.47 -64.8,-199.01 -115.055,-358.62 l -46.613,-156.65 c -9.258,-30.87 -15.871,-46.3 -19.836,-46.3 -4.629,0 -9.59,7.88 -14.879,23.64 -19.176,59.77 -73.394,208.87 -162.66,447.29 l -39.672,105.42 c 0.66,-12.48 0.992,-29.55 0.992,-51.23 l 0,-320.19 c 0,-120.2 0.993,-180.96 2.977,-182.27 4.629,-8.54 20.496,-12.81 47.605,-12.81 21.821,0 32.731,-2.96 32.731,-8.87 0,-6.56 -6.942,-9.85 -20.828,-9.85 -8.594,0 -16.532,0.33 -23.805,0.99 -9.254,0.65 -17.519,0.98 -24.793,0.98 l -114.062,-2.95 c -11.903,0 -17.852,2.95 -17.852,8.86 0,6.57 18.844,10.18 56.535,10.84 15.867,0 25.125,2.63 27.77,7.88 2.644,5.26 3.968,22.34 3.968,51.23 l 0,471.92 c 0,54.52 -0.664,84.08 -1.984,88.67 -2.644,9.2 -8.266,15.44 -16.859,18.72 -8.598,3.28 -27.114,5.91 -55.543,7.88 -10.582,0.66 -15.871,3.62 -15.871,8.87 0,7.23 9.589,10.84 28.765,10.84 2.645,0 8.262,-0.33 16.86,-0.99 l 51.574,0 c 39.012,0 66.453,0.33 82.32,0.99 3.309,-8.54 22.813,-60.1 58.52,-154.68 15.207,-39.41 57.855,-154.35 127.945,-344.83 12.562,42.7 25.457,84.73 38.68,126.11 l 105.13,326.11 c 5.96,19.05 11.24,34.81 15.87,47.29 l 148.78,0.98 c 21.82,0 34.38,-0.98 37.68,-2.95 3.31,-1.97 4.97,-4.93 4.97,-8.87 0,-6.57 -5.63,-9.85 -16.86,-9.85 -18.52,0 -31.08,-0.66 -37.7,-1.97 -15.86,-2.63 -26.77,-7.88 -32.73,-15.77 -3.3,-4.59 -4.95,-43.02 -4.95,-115.27 l 0,-458.12 c 0,-26.27 2.64,-41.71 7.93,-46.31 8.59,-5.91 30.09,-8.86 64.47,-8.86 l 5.95,0 c 13.23,0 19.83,-3.29 19.83,-9.86 z" /><path
         id="path16"
         style="fill:#000000;fill-opacity:1;fill-rule:nonzero;stroke:none"
         d="m 1290.51,456.129 c 0,48.09 -7.89,94.176 -23.68,138.258 -15.79,44.082 -38.53,82.984 -68.22,116.715 -29.69,33.73 -65.85,60.613 -108.49,80.648 -42.64,20.039 -90.804,30.059 -144.495,30.059 -49.27,0 -96.168,-8.52 -140.699,-25.551 -44.535,-17.031 -83.379,-41.41 -116.543,-73.133 -33.16,-31.727 -59.535,-70.465 -79.113,-116.215 -19.582,-45.754 -29.375,-97.348 -29.375,-154.789 0,-54.101 9.316,-103.691 27.953,-148.773 18.632,-45.086 44.058,-83.825 76.273,-116.219 32.215,-32.391 69.797,-57.438 112.75,-75.137 42.953,-17.699 88.434,-26.5506 136.438,-26.5506 48.64,0 94.591,9.0195 137.861,27.0506 43.27,18.035 81.17,43.746 113.7,77.145 32.53,33.394 58.27,72.801 77.22,118.218 18.95,45.418 28.42,94.84 28.42,148.274 z m -117.49,-1 c 0,-42.078 -4.89,-84.156 -14.68,-126.234 -9.79,-42.079 -24.48,-79.981 -44.06,-113.711 -19.58,-33.731 -44.06,-61.282 -73.43,-82.653 -29.37,-21.375 -63.955,-32.062 -103.752,-32.062 -39.793,0 -74.692,9.687 -104.696,29.054 -30.004,19.372 -54.953,45.086 -74.851,77.145 -19.899,32.059 -34.899,69.125 -45.008,111.207 -10.105,42.078 -15.16,85.824 -15.16,131.242 0,43.414 4.582,86.324 13.738,128.738 9.16,42.411 23.375,80.317 42.641,113.711 19.265,33.395 43.898,60.61 73.902,81.649 30.004,21.039 65.535,31.558 106.594,31.558 40.426,0 75.482,-10.519 105.172,-31.558 29.69,-21.039 54.48,-48.422 74.37,-82.149 19.9,-33.73 34.75,-71.3 44.54,-112.711 9.79,-41.41 14.68,-82.484 14.68,-123.226 z" /><path
         id="path18"
         style="fill:#000000;fill-opacity:1;fill-rule:nonzero;stroke:none"
         d="m 429.715,695.961 c 30.234,0 54.426,4.238 72.566,12.715 18.141,8.476 27.211,19.492 27.211,33.054 0,4.473 -0.992,7.696 -2.984,9.661 -1.992,1.968 -5.274,2.949 -9.848,2.949 -2.211,0 -6.969,-0.848 -14.269,-2.543 -7.301,-1.695 -13.239,-2.543 -17.809,-2.543 -16.227,0 -30.09,5.664 -41.594,16.984 -11.504,11.324 -17.258,24.989 -17.258,40.989 0,18.578 6.563,33.562 19.692,44.953 13.129,11.39 30.383,17.086 51.769,17.086 22.422,0 40.266,-6.778 53.543,-20.34 13.274,-13.563 19.911,-31.934 19.911,-55.125 0,-34.172 -12.133,-60.613 -36.395,-79.328 -24.262,-18.715 -58.664,-28.071 -103.207,-28.071 l -2.215,0 0,9.559 0.887,0 z" /><path
         id="path20"
         style="fill:#000000;fill-opacity:1;fill-rule:nonzero;stroke:none"
         d="m 351.375,946.109 1202.26,0 0,9.98828 -1202.26,0 0,-9.98828 z" /></g></g></svg>