<?xml version="1.0" encoding="utf-8"?>
<!-- Generator: Adobe Illustrator 16.0.0, SVG Export Plug-In . SVG Version: 6.00 Build 0)  -->
<!DOCTYPE svg PUBLIC "-//W3C//DTD SVG 1.1//EN" "http://www.w3.org/Graphics/SVG/1.1/DTD/svg11.dtd">
<svg version="1.1" id="Layer_1" xmlns="http://www.w3.org/2000/svg" xmlns:xlink="http://www.w3.org/1999/xlink" x="0px" y="0px"
	 width="100px" height="100px" viewBox="0 0 100 100" enable-background="new 0 0 100 100" xml:space="preserve">
<g>
	<g>
		<path d="M73.893,42.685c-0.059-0.548-0.544-0.946-1.102-0.887L69.3,42.175v-7.366c0-0.552-0.447-1-1-1h-5.5c-0.553,0-1,0.448-1,1
			v5.55c-0.173-0.141-0.385-0.237-0.625-0.237H54.55v-8.25c0-0.552-0.447-1-1-1h-9.731c-0.553,0-1,0.448-1,1v6.895l-2.685-0.326
			c-0.265-0.033-0.527,0.042-0.737,0.206c-0.208,0.164-0.344,0.403-0.376,0.667l-0.611,5.036c0,0,0,0,0,0l-0.104,0.867l-0.82,6.752
			c0,0,0,0,0,0.001l-0.415,3.415c0,0.001,0.001,0.002,0,0.004l-0.02,0.164v-4.992v-4.875v-6v-4.875v-7.188c0-0.552-0.447-1-1-1
			h-9.333c-0.553,0-1,0.448-1,1v7.188v4.875v6v4.875v6v4.875v7.188c0,0.552,0.447,1,1,1h9.333c0.33,0,0.608-0.17,0.791-0.417
			l3.371,0.409c0.04,0.005,0.08,0.007,0.12,0.007c0.223,0,0.439-0.074,0.617-0.213c0.208-0.164,0.344-0.403,0.376-0.667l0.611-5.036
			c0,0,0,0,0,0l0.104-0.867l0.777-6.4v12.183c0,0.552,0.447,1,1,1h9.731h7.625c0.345,0,0.633-0.185,0.813-0.449
			c0.18,0.265,0.468,0.449,0.813,0.449h5.5c0.553,0,1-0.448,1-1v-6.75l0.796,7.374c0.056,0.513,0.488,0.893,0.993,0.893
			c0.035,0,0.072-0.002,0.108-0.006l4.598-0.496c0.549-0.059,0.946-0.552,0.887-1.102L73.893,42.685z M60.175,42.121v1.397
			c-0.082-0.021-0.161-0.05-0.25-0.05h-5.25c-0.044,0-0.082,0.02-0.125,0.025v-1.373H60.175z M58.925,45.468v1.653h-3.25v-1.653
			H58.925z M40.071,62.472l-1.819-0.221l0.055-0.448l0.119-0.982l1.818,0.221l-0.119,0.982L40.071,62.472z M27.717,35.809h7.333
			v2.875h-7.333V35.809z M27.717,46.684h7.333v2.875h-7.333V46.684z M35.05,40.684v4h-7.333v-4H35.05z M27.717,51.559h7.333v4
			h-7.333V51.559z M27.717,57.559h7.333v2.875h-7.333V57.559z M40.274,45.582l1.819,0.221l-0.055,0.448l-0.119,0.982l-1.818-0.221
			l0.119-0.982L40.274,45.582z M41.68,49.218l-0.27,2.219l-1.819-0.221l0.27-2.219L41.68,49.218z M39.35,53.202l1.819,0.221
			l-0.173,1.43l-1.819-0.221L39.35,53.202z M38.666,58.835l0.27-2.219l1.819,0.221l-0.27,2.219L38.666,58.835z M42.705,40.767
			l-0.37,3.05l-1.819-0.221l0.37-3.05L42.705,40.767z M35.05,28.621v5.188h-7.333v-5.188H35.05z M27.717,67.621v-5.188h7.333v5.188
			H27.717z M37.641,67.287l0.37-3.05l1.819,0.221l-0.37,3.05L37.641,67.287z M44.818,32.871h7.731v8.25v26.5h-7.731V32.871z
			 M54.55,67.621V49.096c0.043,0.006,0.081,0.025,0.125,0.025h5.25c0.089,0,0.168-0.029,0.25-0.05v18.55H54.55z M67.3,60.434h-3.5
			v-1.813h3.5V60.434z M63.8,62.434h3.5v2.063h-3.5V62.434z M67.3,35.809v20.813h-3.5V35.809H67.3z M63.8,67.621v-1.125h3.5v1.125
			H63.8z M71.977,68.037l-2.575-23.861l2.61-0.282l2.574,23.861L71.977,68.037z"/>
	</g>
	<g>
		<path d="M71.001,54.142l1.181,10.219c0.059,0.51,0.491,0.885,0.992,0.885c0.038,0,0.077-0.002,0.116-0.007
			c0.548-0.063,0.941-0.559,0.878-1.108l-1.181-10.219c-0.063-0.548-0.552-0.946-1.108-0.878
			C71.331,53.097,70.938,53.593,71.001,54.142z"/>
	</g>
</g>
</svg>
