<?xml version="1.0" encoding="utf-8"?>
<!-- Generator: Adobe Illustrator 16.0.0, SVG Export Plug-In . SVG Version: 6.00 Build 0)  -->
<!DOCTYPE svg PUBLIC "-//W3C//DTD SVG 1.1//EN" "http://www.w3.org/Graphics/SVG/1.1/DTD/svg11.dtd">
<svg version="1.1" id="Layer_1" xmlns="http://www.w3.org/2000/svg" xmlns:xlink="http://www.w3.org/1999/xlink" x="0px" y="0px"
	 width="100px" height="100px" viewBox="0 0 100 100" enable-background="new 0 0 100 100" xml:space="preserve">
<g>
	<path d="M29.278,65.56V46.208c0-0.552-0.447-1-1-1s-1,0.448-1,1V65.56c0,0.552,0.447,1,1,1S29.278,66.112,29.278,65.56z"/>
	<path d="M34.116,65.56V46.208c0-0.552-0.447-1-1-1s-1,0.448-1,1V65.56c0,0.552,0.447,1,1,1S34.116,66.112,34.116,65.56z"/>
	<path d="M53.467,65.56V46.208c0-0.552-0.447-1-1-1s-1,0.448-1,1V65.56c0,0.552,0.447,1,1,1S53.467,66.112,53.467,65.56z"/>
	<path d="M48.629,65.56V46.208c0-0.552-0.447-1-1-1s-1,0.448-1,1V65.56c0,0.552,0.447,1,1,1S48.629,66.112,48.629,65.56z"/>
	<path d="M67.98,65.56V46.208c0-0.552-0.447-1-1-1s-1,0.448-1,1V65.56c0,0.552,0.447,1,1,1S67.98,66.112,67.98,65.56z"/>
	<path d="M72.818,65.56V46.208c0-0.552-0.447-1-1-1s-1,0.448-1,1V65.56c0,0.552,0.447,1,1,1S72.818,66.112,72.818,65.56z"/>
	<path d="M23.273,42.813h53.55c0.553,0,1-0.448,1-1s-0.447-1-1-1h-53.55c-0.553,0-1,0.448-1,1S22.721,42.813,23.273,42.813z"/>
	<path d="M22.274,69.585c0,0.552,0.447,1,1,1h53.55c0.553,0,1-0.448,1-1s-0.447-1-1-1h-53.55
		C22.722,68.585,22.274,69.033,22.274,69.585z"/>
	<path d="M76.725,72.794h-53.55c-0.553,0-1,0.448-1,1s0.447,1,1,1h53.55c0.553,0,1-0.448,1-1S77.277,72.794,76.725,72.794z"/>
	<path d="M30.648,37.395h38.801c0.553,0,1-0.448,1-1s-0.447-1-1-1H30.648c-0.553,0-1,0.448-1,1S30.096,37.395,30.648,37.395z"/>
	<path d="M40.116,32.186h19.667c0.553,0,1-0.448,1-1s-0.447-1-1-1H40.116c-0.553,0-1,0.448-1,1S39.563,32.186,40.116,32.186z"/>
	<path d="M46.482,27.206h7.134c0.553,0,1-0.448,1-1s-0.447-1-1-1h-7.134c-0.553,0-1,0.448-1,1S45.93,27.206,46.482,27.206z"/>
</g>
</svg>
