<?xml version="1.0" encoding="utf-8"?>
<!-- Generator: Adobe Illustrator 16.0.0, SVG Export Plug-In . SVG Version: 6.00 Build 0)  -->
<!DOCTYPE svg PUBLIC "-//W3C//DTD SVG 1.1//EN" "http://www.w3.org/Graphics/SVG/1.1/DTD/svg11.dtd">
<svg version="1.1" id="Layer_1" xmlns="http://www.w3.org/2000/svg" xmlns:xlink="http://www.w3.org/1999/xlink" x="0px" y="0px"
	 width="100px" height="100px" viewBox="0 0 100 100" enable-background="new 0 0 100 100" xml:space="preserve">
<g>
	<path d="M49.518,48.711c-3.284-1.595-8.048-0.298-11.588,3.242c-2.001,2-3.344,4.438-3.779,6.862
		c-0.461,2.558,0.129,4.809,1.658,6.338c1.208,1.208,2.863,1.789,4.686,1.789c2.786-0.001,5.961-1.358,8.516-3.913
		c0.174-0.174,0.341-0.359,0.508-0.545c0.169,0.186,0.337,0.373,0.512,0.547c2,2,4.437,3.343,6.862,3.779
		c0.567,0.102,1.12,0.152,1.652,0.152c1.868,0,3.495-0.621,4.685-1.811c3.054-3.054,2.103-8.975-2.121-13.198
		C57.568,48.414,52.806,47.115,49.518,48.711z M37.223,63.739c-1.053-1.053-1.445-2.676-1.104-4.57
		c0.365-2.026,1.511-4.087,3.226-5.802c2.525-2.525,5.817-3.738,8.274-3.207c-2.219,2.588-1.954,6.926,0.642,10.729
		c-0.217,0.253-0.438,0.498-0.666,0.728C44.149,65.06,39.497,66.014,37.223,63.739z M61.814,63.738
		c-1.053,1.053-2.674,1.445-4.569,1.104c-2.027-0.365-4.088-1.51-5.802-3.225c-0.396-0.396-0.777-0.832-1.132-1.296
		c-2.53-3.301-2.945-7.118-0.99-9.074c0.195-0.195,0.431-0.375,0.719-0.552c2.464-1.511,6.616-0.363,9.653,2.673
		C63.137,56.813,64.089,61.464,61.814,63.738z"/>
	<path d="M57.341,52.198c-0.456-0.309-1.078-0.194-1.39,0.263c-0.312,0.456-0.193,1.078,0.263,1.39
		c0.035,0.024,3.512,2.445,4.114,7.205c0.064,0.505,0.494,0.874,0.991,0.874c0.042,0,0.084-0.003,0.127-0.008
		c0.548-0.069,0.936-0.57,0.866-1.118C61.598,55.16,57.515,52.316,57.341,52.198z"/>
	<path d="M41.696,52.198c-0.174,0.118-4.257,2.962-4.972,8.605c-0.069,0.548,0.318,1.049,0.866,1.118
		c0.043,0.005,0.085,0.008,0.127,0.008c0.497,0,0.927-0.369,0.991-0.874c0.598-4.724,4.082-7.183,4.117-7.207
		c0.454-0.312,0.57-0.933,0.26-1.388C42.775,52.004,42.153,51.89,41.696,52.198z"/>
	<path d="M48.572,46.85c0.127,0.37,0.459,0.633,0.849,0.67c0.032,0.003,0.064,0.005,0.097,0.005c0.354,0,0.686-0.188,0.866-0.5
		c0.133-0.229,3.264-5.697,3.906-11.302c0.459-4.007-3.776-10.021-3.957-10.275c-0.176-0.247-0.453-0.4-0.755-0.419
		c-0.3-0.013-0.596,0.101-0.8,0.324c-0.171,0.188-4.186,4.67-3.22,10.117C46.499,40.785,48.487,46.604,48.572,46.85z M49.46,27.754
		c1.279,2.057,3.095,5.541,2.844,7.741c-0.364,3.168-1.636,6.377-2.577,8.405c-0.671-2.19-1.64-5.615-2.199-8.779
		C46.981,32.04,48.472,29.22,49.46,27.754z"/>
	<path d="M46.636,47.396c0.061,0.006,0.125,0.007,0.188,0c0.531-0.05,0.93-0.51,0.904-1.043c-0.006-0.124-0.109-0.329-0.298-0.594
		l0.037-0.033c-0.055-0.061-0.115-0.114-0.182-0.16c-1.634-2.092-7.514-7.009-13.034-7.009c-2.479,0-4.729,0.906-6.688,2.695
		c-1.192,1.088-1.599,2.151-1.207,3.161c0.33,0.851,1.206,3.11,14.67,3.11C43.795,47.524,46.066,47.424,46.636,47.396z M28.22,43.69
		c-0.019-0.048,0.045-0.372,0.69-0.961c1.58-1.441,3.377-2.172,5.341-2.172c4.037,0,7.999,2.998,10.123,4.92
		c-0.932,0.025-2.087,0.047-3.349,0.047C29.069,45.524,28.228,43.709,28.22,43.69z"/>
	<path d="M72.439,40.471c-1.96-1.789-4.21-2.695-6.688-2.695c-5.521,0-11.4,4.917-13.034,7.009c-0.066,0.046-0.127,0.1-0.182,0.16
		l0.037,0.033c-0.188,0.265-0.292,0.47-0.298,0.594c-0.025,0.533,0.373,0.993,0.904,1.043c0.063,0.007,0.127,0.006,0.188,0
		c0.569,0.027,2.841,0.128,5.61,0.128c13.464,0,14.34-2.26,14.67-3.11C74.038,42.622,73.632,41.559,72.439,40.471z M58.977,44.742
		c-1.262,0-2.417-0.021-3.349-0.047c2.124-1.922,6.086-4.92,10.123-4.92c1.964,0,3.761,0.73,5.341,2.172
		c0.646,0.589,0.709,0.913,0.69,0.961C71.774,42.927,70.933,44.742,58.977,44.742z"/>
</g>
</svg>
