<?xml version="1.0" encoding="utf-8"?>
<!-- Generator: Adobe Illustrator 16.0.0, SVG Export Plug-In . SVG Version: 6.00 Build 0)  -->
<!DOCTYPE svg PUBLIC "-//W3C//DTD SVG 1.1//EN" "http://www.w3.org/Graphics/SVG/1.1/DTD/svg11.dtd">
<svg version="1.1" id="Layer_1" xmlns="http://www.w3.org/2000/svg" xmlns:xlink="http://www.w3.org/1999/xlink" x="0px" y="0px"
	 width="100px" height="100px" viewBox="0 0 100 100" enable-background="new 0 0 100 100" xml:space="preserve">
<g>
	<path d="M52.052,60.142l-7.5-12.99c-0.179-0.31-0.509-0.5-0.866-0.5h-1.334v-3.322c0-0.553-0.448-1-1-1H31.02c-0.552,0-1,0.447-1,1
		v3.322h-1.334c-0.357,0-0.688,0.19-0.866,0.5l-7.5,12.99c-0.178,0.31-0.178,0.69,0,1l7.5,12.99c0.179,0.31,0.509,0.5,0.866,0.5h15
		c0.357,0,0.688-0.19,0.866-0.5l7.5-12.99C52.23,60.832,52.23,60.451,52.052,60.142z M43.108,72.632H29.263l-6.922-11.99
		l6.922-11.99h1.757c0.552,0,1-0.447,1-1v-3.322h8.332v3.322c0,0.553,0.448,1,1,1h1.757l6.922,11.99L43.108,72.632z"/>
	<path d="M27.519,41.137h17.334c0.552,0,1-0.447,1-1v-3.495c0-0.553-0.448-1-1-1H27.519c-0.552,0-1,0.447-1,1v3.495
		C26.519,40.689,26.966,41.137,27.519,41.137z M28.519,37.642h15.334v1.495H28.519V37.642z"/>
</g>
<path d="M76.338,37.84c-0.456-0.133-0.943,0.069-1.167,0.489c-0.042,0.08-0.088,0.162-0.136,0.246
	c1.242-3.013,2.425-6.912,2.011-10.153c-0.486-3.809-2.265-5.068-3.835-6.181c-1.043-0.739-1.944-1.377-2.474-2.793
	c-0.158-0.422-0.576-0.66-1.009-0.627c-0.214-0.026-0.436,0.001-0.635,0.121c-0.473,0.285-0.625,0.9-0.339,1.373
	c0.046,0.077,0.085,0.159,0.129,0.237c0.095,1.324,0.016,4.958-2.926,9.462c-0.089,0.142-1.991,3.228-0.202,6.323
	c-0.382,0.104-0.883-0.207-1.407-0.896c-0.179-0.234-0.453-0.378-0.748-0.393c-0.299-0.021-0.582,0.104-0.782,0.32
	c-1.266,1.369-2.888,4.815-0.424,8.416c-0.265,0.222-0.648,0.375-2.047-0.271c-0.45-0.208-0.988-0.054-1.258,0.364
	c-0.116,0.178-2.816,4.417-1.734,9.151c0.605,2.649,2.271,4.89,4.931,6.683c-0.07,0.295-0.161,0.584-0.223,0.882
	c-1.508,7.31,0.182,13.081,0.254,13.323c0.13,0.434,0.527,0.713,0.958,0.713c0.095,0,0.192-0.014,0.288-0.042
	c0.529-0.159,0.829-0.717,0.67-1.245C64.219,73.29,62.617,67.82,64.024,61c0.047-0.227,0.117-0.446,0.169-0.671
	c1.871-0.019,7.771-0.739,10.715-8.688c0.148-0.4,0.026-0.85-0.303-1.12s-0.794-0.301-1.159-0.079
	c-0.003,0.002-0.047,0.029-0.128,0.075c1.026-1.248,2.007-2.738,2.439-4.253c0.037-0.118,0.912-2.947,1.292-7.381
	C77.092,38.411,76.793,37.975,76.338,37.84z M59.31,52.602c-0.666-2.888,0.44-5.663,1.07-6.926c0.536,0.176,1.034,0.264,1.487,0.264
	c1.838,0,2.553-1.374,2.674-2.102c0.046-0.278-0.027-0.563-0.202-0.784c-1.797-2.271-1.238-4.307-0.653-5.425
	c0.603,0.486,1.241,0.732,1.906,0.732c1.394-0.001,2.239-1.096,2.331-1.22c0.27-0.368,0.257-0.872-0.031-1.226
	c-1.816-2.224-0.305-4.731-0.25-4.82c1.515-2.319,2.342-4.435,2.789-6.208c1.75,9.269-3.515,22.397-6.56,29.988l-0.354,0.885
	c-0.249,0.622-0.461,1.266-0.667,1.91C60.95,56.249,59.759,54.549,59.31,52.602z M73.843,45.691c-0.9,3.149-4.959,6.464-5,6.497
	c-0.35,0.283-0.467,0.765-0.288,1.177s0.619,0.654,1.058,0.591c0.813-0.117,1.602-0.342,2.3-0.595
	c-2.259,3.92-5.367,4.792-7.168,4.941c0.193-0.607,0.394-1.213,0.628-1.8l0.354-0.883c3.392-8.453,8.722-21.753,6.586-31.563
	c1.3,0.932,2.398,1.861,2.75,4.618c0.698,5.464-4.072,13.659-4.12,13.741c-0.187,0.318-0.183,0.714,0.009,1.028
	c0.193,0.316,0.542,0.499,0.912,0.477c0.991-0.058,1.916-0.657,2.701-1.413C74.214,44.485,73.854,45.658,73.843,45.691z"/>
</svg>
