<?xml version="1.0" encoding="utf-8"?>
<!-- Generator: Adobe Illustrator 16.0.0, SVG Export Plug-In . SVG Version: 6.00 Build 0)  -->
<!DOCTYPE svg PUBLIC "-//W3C//DTD SVG 1.1//EN" "http://www.w3.org/Graphics/SVG/1.1/DTD/svg11.dtd">
<svg version="1.1" id="Layer_1" xmlns="http://www.w3.org/2000/svg" xmlns:xlink="http://www.w3.org/1999/xlink" x="0px" y="0px"
	 width="100px" height="100px" viewBox="0 0 100 100" enable-background="new 0 0 100 100" xml:space="preserve">
<g>
	<g>
		<path d="M76.158,21.942H49.783c-0.015,0-0.027,0.008-0.042,0.008c-0.109,0.005-0.217,0.024-0.321,0.065
			c-0.011,0.004-0.023,0.005-0.034,0.01c-0.003,0.001-0.007,0.001-0.01,0.003l-6.344,2.819l-6.344-2.819
			c-0.003-0.001-0.007-0.001-0.01-0.003c-0.011-0.005-0.023-0.006-0.034-0.01c-0.104-0.041-0.211-0.06-0.319-0.064
			c-0.015,0-0.028-0.009-0.043-0.009h-7.25c-0.552,0-1,0.448-1,1v46.875c0,0.552,0.448,1,1,1h6.976l6.514,3.86
			c0.003,0.001,0.006,0.002,0.008,0.003s0.004,0.003,0.006,0.005c0.048,0.027,0.1,0.042,0.15,0.062
			c0.029,0.011,0.057,0.027,0.087,0.036c0.084,0.022,0.171,0.034,0.258,0.034s0.174-0.012,0.258-0.034
			c0.029-0.008,0.055-0.024,0.083-0.034c0.052-0.019,0.105-0.035,0.154-0.063c0.002-0.001,0.004-0.003,0.006-0.005
			s0.005-0.002,0.008-0.003l6.514-3.86h26.101c0.552,0,1-0.448,1-1V22.942C77.158,22.39,76.71,21.942,76.158,21.942z M30.033,23.942
			h5.25v44.875h-5.25V23.942z M37.283,24.48l4.75,2.111v45.47l-4.75-2.815V24.48z M44.033,26.592l4.75-2.111v44.767l-4.75,2.815
			V26.592z M75.158,68.817H50.783V23.942h24.375V68.817z"/>
	</g>
	<g>
		<path d="M62.158,56.379c0.353,0,0.679-0.186,0.859-0.488c0.763-1.28,7.454-12.631,7.454-16.824c0-4.583-3.729-8.313-8.313-8.313
			s-8.313,3.729-8.313,8.313c0,4.193,6.69,15.544,7.454,16.824C61.479,56.194,61.806,56.379,62.158,56.379z M62.158,32.754
			c3.481,0,6.313,2.832,6.313,6.313c0,2.708-3.988,10.256-6.313,14.325c-2.324-4.069-6.313-11.617-6.313-14.325
			C55.846,35.586,58.677,32.754,62.158,32.754z"/>
	</g>
	<g>
		<path d="M65.658,38.942c0-1.93-1.57-3.5-3.5-3.5s-3.5,1.57-3.5,3.5s1.57,3.5,3.5,3.5S65.658,40.872,65.658,38.942z M60.658,38.942
			c0-0.827,0.673-1.5,1.5-1.5s1.5,0.673,1.5,1.5s-0.673,1.5-1.5,1.5S60.658,39.769,60.658,38.942z"/>
	</g>
</g>
</svg>
