<?xml version="1.0" encoding="utf-8"?>
<!-- Generator: Adobe Illustrator 16.0.0, SVG Export Plug-In . SVG Version: 6.00 Build 0)  -->
<!DOCTYPE svg PUBLIC "-//W3C//DTD SVG 1.1//EN" "http://www.w3.org/Graphics/SVG/1.1/DTD/svg11.dtd">
<svg version="1.1" id="Layer_1" xmlns="http://www.w3.org/2000/svg" xmlns:xlink="http://www.w3.org/1999/xlink" x="0px" y="0px"
	 width="100px" height="100px" viewBox="0 0 100 100" enable-background="new 0 0 100 100" xml:space="preserve">
<path d="M69.736,64.797H69.21c0.214-0.184,0.356-0.446,0.356-0.75c0-0.553-0.447-1-1-1h-2.08v-0.013
	c0.521-0.034,0.938-0.457,0.938-0.987s-0.416-0.953-0.938-0.987V45.284c0.521-0.034,0.938-0.457,0.938-0.987
	s-0.416-0.953-0.938-0.987v-0.169h1.125c0.553,0,1-0.447,1-1c0-0.214-0.081-0.4-0.195-0.563h0.15c0.007,0,0.015,0,0.02,0
	c0.553,0,1-0.447,1-1c0-0.409-0.245-0.762-0.598-0.916l-17.97-11.296c-0.326-0.205-0.738-0.205-1.064,0L31.872,39.731
	c-0.377,0.237-0.552,0.695-0.429,1.124c0.123,0.428,0.516,0.723,0.961,0.723h0.152c-0.114,0.162-0.195,0.349-0.195,0.563
	c0,0.553,0.447,1,1,1h1.125v0.169c-0.521,0.034-0.938,0.457-0.938,0.987s0.416,0.953,0.938,0.987V61.06
	c-0.521,0.034-0.938,0.457-0.938,0.987s0.416,0.953,0.938,0.987v0.013h-2.082c-0.553,0-1,0.447-1,1c0,0.304,0.143,0.566,0.356,0.75
	h-0.524c-0.553,0-1,0.447-1,1s0.447,1,1,1h38.5c0.553,0,1-0.447,1-1S70.289,64.797,69.736,64.797z M50.486,30.394l14.61,9.185
	H35.874L50.486,30.394z M64.486,45.284V61.06c-0.521,0.034-0.938,0.457-0.938,0.987s0.416,0.953,0.938,0.987v0.013h-8v-0.013
	c0.521-0.034,0.938-0.457,0.938-0.987s-0.416-0.953-0.938-0.987V45.284c0.521-0.034,0.938-0.457,0.938-0.987
	c0-0.187-0.064-0.351-0.153-0.5h6.432c-0.089,0.149-0.153,0.313-0.153,0.5C63.549,44.827,63.965,45.25,64.486,45.284z
	 M46.486,63.034c0.521-0.034,0.938-0.457,0.938-0.987s-0.416-0.953-0.938-0.987V45.284c0.521-0.034,0.938-0.457,0.938-0.987
	c0-0.187-0.064-0.351-0.153-0.5h6.432c-0.089,0.149-0.153,0.313-0.153,0.5c0,0.53,0.416,0.953,0.938,0.987V61.06
	c-0.521,0.034-0.938,0.457-0.938,0.987s0.416,0.953,0.938,0.987v0.013h-8V63.034z M44.486,45.284V61.06
	c-0.521,0.034-0.938,0.457-0.938,0.987s0.416,0.953,0.938,0.987v0.013h-8v-0.013c0.521-0.034,0.938-0.457,0.938-0.987
	s-0.416-0.953-0.938-0.987V45.284c0.521-0.034,0.938-0.457,0.938-0.987c0-0.187-0.064-0.351-0.153-0.5h6.432
	c-0.089,0.149-0.153,0.313-0.153,0.5C43.549,44.827,43.965,45.25,44.486,45.284z"/>
</svg>
