<?xml version="1.0" encoding="utf-8"?>
<!-- Generator: Adobe Illustrator 16.0.0, SVG Export Plug-In . SVG Version: 6.00 Build 0)  -->
<!DOCTYPE svg PUBLIC "-//W3C//DTD SVG 1.1//EN" "http://www.w3.org/Graphics/SVG/1.1/DTD/svg11.dtd">
<svg version="1.1" id="Layer_1" xmlns="http://www.w3.org/2000/svg" xmlns:xlink="http://www.w3.org/1999/xlink" x="0px" y="0px"
	 width="100px" height="100px" viewBox="0 0 100 100" enable-background="new 0 0 100 100" xml:space="preserve">
<path d="M72.719,67.408C77.853,61.874,81,54.472,81,46.346c0-17.093-13.906-31-31-31c-9.042,0-17.189,3.893-22.861,10.088
	c-0.021,0.019-0.047,0.027-0.065,0.047c-0.019,0.02-0.023,0.045-0.04,0.066C22.044,31.051,19,38.35,19,46.346
	c0,17.093,13.906,31,31,31c8.915,0,16.958-3.788,22.618-9.833c0.021-0.019,0.046-0.026,0.064-0.046
	C72.699,67.449,72.704,67.426,72.719,67.408z M50,17.346c15.99,0,29,13.009,29,29c0,7.27-2.695,13.918-7.131,19.013L61.073,55.42
	v-27.2c0-0.552-0.447-1-1-1h-2.177v-3.125c0-0.552-0.447-1-1-1s-1,0.448-1,1v3.125H39.928c-0.553,0-1,0.448-1,1v6.813l-9.683-8.914
	C34.516,20.713,41.87,17.346,50,17.346z M40.928,39.595l18.146,16.704v7.172H40.928V39.595z M40.928,36.875v-7.655h18.146v24.358
	L40.928,36.875z M50,75.346c-15.99,0-29-13.009-29-29c0-7.143,2.601-13.686,6.898-18.745l11.029,10.153v26.717c0,0.552,0.447,1,1,1
	h20.146c0.553,0,1-0.448,1-1V58.14l9.438,8.688C65.258,72.087,58.003,75.346,50,75.346z"/>
</svg>
