<?xml version="1.0" encoding="utf-8"?>
<!-- Generator: Adobe Illustrator 16.0.0, SVG Export Plug-In . SVG Version: 6.00 Build 0)  -->
<!DOCTYPE svg PUBLIC "-//W3C//DTD SVG 1.1//EN" "http://www.w3.org/Graphics/SVG/1.1/DTD/svg11.dtd">
<svg version="1.1" id="Layer_1" xmlns="http://www.w3.org/2000/svg" xmlns:xlink="http://www.w3.org/1999/xlink" x="0px" y="0px"
	 width="100px" height="100px" viewBox="0 0 100 100" enable-background="new 0 0 100 100" xml:space="preserve">
<g>
	<path d="M73.508,70.536c5.134-5.534,8.281-12.936,8.281-21.062c0-17.093-13.906-31-31-31c-9.041,0-17.189,3.893-22.861,10.087
		c-0.021,0.019-0.047,0.027-0.065,0.048c-0.019,0.02-0.023,0.045-0.04,0.066c-4.989,5.504-8.033,12.802-8.033,20.798
		c0,17.093,13.906,31,31,31c8.915,0,16.958-3.788,22.618-9.833c0.02-0.019,0.046-0.025,0.064-0.046
		C73.488,70.578,73.493,70.555,73.508,70.536z M50.789,20.474c15.99,0,29,13.009,29,29c0,7.27-2.695,13.918-7.131,19.013
		l-17.424-16.04c0.702-0.279,1.501-0.55,2.439-0.838c3.615-1.074,8.19-2.94,8.19-10.623c-0.056-9.04-7.966-11.582-15.255-11.582
		c-5.34,0-11.188,1.653-13.777,6.104l-6.798-6.258C35.305,23.841,42.659,20.474,50.789,20.474z M53.103,50.485L39.078,37.574
		c1.867-4.285,7.283-5.46,11.531-5.46c5.424,0,12.373,1.47,12.373,8.872c0,5.649-2.824,7.063-6.045,8.023
		C55.43,49.447,54.171,49.929,53.103,50.485z M50.789,78.474c-15.99,0-29-13.009-29-29c0-7.143,2.601-13.686,6.898-18.745
		l7.31,6.729c-0.33,1.042-0.528,2.186-0.528,3.471h2.938c0.003-0.411,0.035-0.8,0.083-1.176l12.875,11.852
		c-2.522,2.028-3.354,5.004-3.354,10.062h2.882c0-4.8,0.414-6.865,2.44-8.25L71.3,69.956C66.047,75.215,58.792,78.474,50.789,78.474
		z"/>
	<path d="M47.502,67.598c0,2.938,4.407,2.938,4.407,0C51.909,64.659,47.502,64.659,47.502,67.598z"/>
</g>
</svg>
