<?xml version="1.0" encoding="utf-8"?>
<!-- Generator: Adobe Illustrator 16.0.0, SVG Export Plug-In . SVG Version: 6.00 Build 0)  -->
<!DOCTYPE svg PUBLIC "-//W3C//DTD SVG 1.1//EN" "http://www.w3.org/Graphics/SVG/1.1/DTD/svg11.dtd">
<svg version="1.1" id="Layer_1" xmlns="http://www.w3.org/2000/svg" xmlns:xlink="http://www.w3.org/1999/xlink" x="0px" y="0px"
	 width="100px" height="100px" viewBox="0 0 100 100" enable-background="new 0 0 100 100" xml:space="preserve">
<g>
	<path d="M78.072,47.286c-0.129-2.959-1.343-5.728-3.436-7.821c-2.227-2.228-5.188-3.455-8.339-3.455s-6.111,1.227-8.339,3.455
		c-0.79,0.79-1.841,1.225-2.957,1.225c-1.117,0-2.168-0.435-2.958-1.225c-0.849-0.848-1.292-2.021-1.218-3.218
		c0.005-0.084-0.001-0.167-0.019-0.248c0.01-0.143,0.018-0.286,0.018-0.429c0.002-0.03,0.002-0.06,0.002-0.09
		c-0.001-0.033-0.003-0.065-0.007-0.097c-0.109-2.995-1.328-5.8-3.437-7.907c-2.224-2.224-5.181-3.448-8.325-3.448
		c-2.455,0-4.809,0.746-6.806,2.158c-0.593,0.419-1.099,0.841-1.546,1.289c-0.165,0.165-0.315,0.336-0.466,0.509l-0.053,0.061
		c-0.028,0.022-0.056,0.047-0.081,0.073C19.14,39.086,19.14,56.933,30.108,67.902c5.313,5.314,12.377,8.24,19.892,8.24
		s14.579-2.926,19.893-8.24c5.429-5.429,8.354-12.646,8.236-20.322C78.127,47.48,78.107,47.381,78.072,47.286z M68.479,66.488
		C63.543,71.424,56.98,74.142,50,74.142s-13.542-2.718-18.478-7.654c-10.146-10.146-10.189-26.625-0.132-36.824
		c0.071-0.047,0.138-0.104,0.195-0.169c0.033-0.038,0.064-0.076,0.081-0.102l0.083-0.096c0.12-0.137,0.238-0.274,0.371-0.407
		c0.367-0.368,0.787-0.718,1.286-1.07c1.658-1.172,3.612-1.792,5.651-1.792c2.61,0,5.064,1.017,6.911,2.863
		c1.768,1.766,2.781,4.125,2.854,6.64c0.001,0.01,0.001,0.021,0.002,0.031c0.001,0.106-0.007,0.213-0.014,0.319l-0.015,0.281
		c-0.003,0.081,0.005,0.16,0.022,0.236c-0.029,1.672,0.622,3.292,1.811,4.481c1.168,1.168,2.72,1.811,4.372,1.811
		c1.651,0,3.203-0.643,4.371-1.811c1.85-1.85,4.31-2.869,6.925-2.869c2.616,0,5.075,1.019,6.925,2.869
		c1.788,1.788,2.803,4.171,2.858,6.711c0.002,0.091,0.021,0.183,0.051,0.271C76.174,54.898,73.462,61.504,68.479,66.488z"/>
	<path d="M67.827,45.67c-1.186,0-2.301,0.462-3.139,1.3c-0.839,0.838-1.302,1.954-1.302,3.14c0,1.186,0.463,2.301,1.302,3.14
		c0.838,0.838,1.953,1.3,3.139,1.3s2.301-0.461,3.141-1.301c1.73-1.731,1.73-4.548,0-6.28C70.128,46.132,69.013,45.67,67.827,45.67z
		"/>
	<path d="M61.561,56.803c-1.186,0-2.301,0.462-3.14,1.301c-0.839,0.838-1.301,1.953-1.301,3.14c0,1.186,0.462,2.301,1.301,3.139
		c0.839,0.839,1.954,1.301,3.14,1.301s2.301-0.462,3.14-1.301c0.839-0.838,1.301-1.953,1.301-3.139c0-1.187-0.462-2.301-1.301-3.14
		C63.861,57.265,62.746,56.803,61.561,56.803z"/>
	<path d="M50.46,63.038c-1.186,0-2.301,0.462-3.14,1.301c-1.73,1.731-1.73,4.548,0,6.279c0.839,0.839,1.954,1.301,3.14,1.301
		s2.301-0.462,3.141-1.301c1.73-1.731,1.73-4.548,0-6.279C52.762,63.5,51.646,63.038,50.46,63.038z"/>
	<path d="M39.441,56.885c-1.186,0-2.301,0.462-3.139,1.3c-0.839,0.838-1.302,1.954-1.302,3.14c0,1.186,0.463,2.301,1.302,3.139
		c0.838,0.839,1.953,1.301,3.139,1.301s2.301-0.462,3.14-1.301c0.839-0.838,1.301-1.953,1.301-3.139c0-1.187-0.462-2.301-1.301-3.14
		C41.742,57.347,40.627,56.885,39.441,56.885z"/>
	<path d="M36.097,46.835c-0.839-0.839-1.954-1.3-3.14-1.3s-2.301,0.462-3.139,1.3c-0.839,0.839-1.302,1.954-1.302,3.14
		s0.463,2.301,1.302,3.139c0.838,0.839,1.953,1.302,3.139,1.302s2.301-0.462,3.14-1.301C37.828,51.384,37.828,48.566,36.097,46.835z
		"/>
	<path d="M39.969,29.326c-1.127,0-2.157,0.409-2.9,1.151c-1.73,1.732-1.468,4.812,0.587,6.865c1.104,1.104,2.549,1.737,3.966,1.737
		c1.127,0,2.156-0.409,2.898-1.151c1.731-1.731,1.469-4.811-0.585-6.865C42.831,29.959,41.386,29.326,39.969,29.326z M43.105,36.514
		c-0.467,0.467-1.065,0.565-1.484,0.565c-0.891,0-1.82-0.419-2.552-1.151c-1.274-1.274-1.538-3.085-0.587-4.037
		c0.468-0.468,1.066-0.566,1.486-0.566c0.891,0,1.82,0.419,2.552,1.151C43.795,33.751,44.057,35.563,43.105,36.514z"/>
</g>
</svg>
