<?xml version="1.0" encoding="utf-8"?>
<!-- Generator: Adobe Illustrator 16.0.0, SVG Export Plug-In . SVG Version: 6.00 Build 0)  -->
<!DOCTYPE svg PUBLIC "-//W3C//DTD SVG 1.1//EN" "http://www.w3.org/Graphics/SVG/1.1/DTD/svg11.dtd">
<svg version="1.1" id="Layer_1" xmlns="http://www.w3.org/2000/svg" xmlns:xlink="http://www.w3.org/1999/xlink" x="0px" y="0px"
	 width="100px" height="100px" viewBox="0 0 100 100" enable-background="new 0 0 100 100" xml:space="preserve">
<g>
	<path d="M81.131,50.765c0-2.721-1.34-5.247-3.548-6.782c0.253-0.802,0.381-1.631,0.381-2.478c0-4.554-3.705-8.259-8.259-8.259
		c-3.673,0-6.806,2.36-7.868,5.766c-0.846-0.287-1.727-0.432-2.632-0.432c-4.554,0-8.259,3.705-8.259,8.259
		c0,1.921,0.65,3.736,1.849,5.203c-1.198,1.469-1.849,3.283-1.849,5.204c0,4.554,3.705,8.259,8.259,8.259
		c1.498,0,2.952-0.407,4.223-1.168v9.87c0,0.553,0.447,1,1,1h3.666c0.553,0,1-0.447,1-1v-7.948c4.784,0.377,8.87-3.478,8.87-8.235
		c0-0.237-0.012-0.479-0.037-0.731C79.944,55.73,81.131,53.335,81.131,50.765z M76.308,55.993c-0.33,0.217-0.501,0.608-0.437,0.998
		c0.063,0.379,0.093,0.716,0.093,1.032c0,3.451-2.808,6.259-6.259,6.259c-0.461,0-0.929-0.053-1.392-0.157
		c-0.293-0.068-0.606,0.006-0.844,0.194c-0.238,0.19-0.376,0.478-0.376,0.781v8.106h-1.666V62.99c0-0.256-0.098-0.501-0.273-0.687
		c-0.001-0.001-0.07-0.074-0.071-0.076c-0.076-0.08-0.154-0.159-0.224-0.245c-0.173-0.214-0.427-0.348-0.701-0.368
		c-0.273-0.021-0.546,0.071-0.749,0.258c-1.157,1.053-2.65,1.633-4.204,1.633c-3.451,0-6.259-2.808-6.259-6.259
		c0-1.702,0.675-3.296,1.901-4.487c0.193-0.188,0.303-0.446,0.303-0.717s-0.109-0.529-0.304-0.718c-1.226-1.19-1.9-2.783-1.9-4.485
		c0-3.451,2.808-6.259,6.259-6.259c1.007,0,1.975,0.236,2.875,0.703c0.286,0.149,0.625,0.149,0.913,0.004
		c0.287-0.146,0.486-0.421,0.535-0.739c0.473-3.072,3.07-5.302,6.177-5.302c3.451,0,6.259,2.808,6.259,6.259
		c0,0.861-0.175,1.701-0.521,2.496c-0.206,0.474-0.018,1.026,0.436,1.274c2.006,1.103,3.252,3.206,3.252,5.489
		C79.131,52.874,78.075,54.829,76.308,55.993z"/>
	<path d="M55.164,71.541l-2.537-0.134l-4.092-9.859c-0.138-0.33-0.44-0.562-0.795-0.607l-7.674-0.995l-0.256-0.447l4.993-0.125
		c0.504-0.013,0.919-0.398,0.97-0.9l0.167-1.666c0.027-0.27-0.057-0.539-0.231-0.745c-0.175-0.207-0.427-0.334-0.697-0.353
		l-6.876-0.458l-1.932-4.736c-0.065-0.161-0.173-0.303-0.31-0.41c-0.159-0.124-1.387-1.043-2.849-1.345
		c1.848-0.427,3.232-2.077,3.232-4.053c0-2.298-1.869-4.167-4.167-4.167s-4.167,1.869-4.167,4.167c0,2,1.417,3.673,3.3,4.073
		c-0.963,0.267-2.09,1.057-2.604,3.192c-0.042,0.172-0.037,0.353,0.014,0.521l4,13.333c0.127,0.423,0.517,0.713,0.958,0.713h0.236
		l-1.438,3.938c-0.001,0-0.001,0.001-0.001,0.001l-1.236,3.384c-0.189,0.52,0.077,1.094,0.596,1.283
		c0.113,0.041,0.229,0.061,0.344,0.061c0.408,0,0.791-0.251,0.939-0.656l0.98-2.683h9.865l0.754,2.616
		c0.152,0.529,0.703,0.837,1.238,0.684c0.53-0.153,0.837-0.707,0.684-1.238l-2.132-7.39h1.112l2.608,7.978
		c0.134,0.411,0.518,0.689,0.95,0.689h6c0.553,0,1-0.447,1-1V72.54C56.111,72.008,55.695,71.569,55.164,71.541z M29.944,44.707
		c0-1.195,0.972-2.167,2.167-2.167s2.167,0.972,2.167,2.167s-0.972,2.167-2.167,2.167S29.944,45.902,29.944,44.707z M43.319,69.868
		h-8.558l1.216-3.328h6.382L43.319,69.868z M49.837,73.207l-2.608-7.978c-0.134-0.411-0.518-0.689-0.95-0.689h-3.167h-7.833h-0.923
		L30.65,52.189c0.445-1.533,1.216-1.533,1.515-1.533c0.826,0,1.803,0.545,2.295,0.879l2.06,5.05c0.145,0.354,0.478,0.595,0.859,0.62
		l3.852,0.257l-3.145,0.078c-0.352,0.009-0.673,0.202-0.846,0.509s-0.172,0.682,0.003,0.987l1.334,2.333
		c0.155,0.272,0.429,0.455,0.739,0.495l7.593,0.984l4.112,9.908c0.078,0.188,0.209,0.343,0.372,0.45H49.837z"/>
</g>
</svg>
