<?xml version="1.0" encoding="utf-8"?>
<!-- Generator: Adobe Illustrator 16.0.0, SVG Export Plug-In . SVG Version: 6.00 Build 0)  -->
<!DOCTYPE svg PUBLIC "-//W3C//DTD SVG 1.1//EN" "http://www.w3.org/Graphics/SVG/1.1/DTD/svg11.dtd">
<svg version="1.1" id="Layer_1" xmlns="http://www.w3.org/2000/svg" xmlns:xlink="http://www.w3.org/1999/xlink" x="0px" y="0px"
	 width="100px" height="100px" viewBox="0 0 100 100" enable-background="new 0 0 100 100" xml:space="preserve">
<g>
	<path d="M50.244,19.965c-17.094,0-31,13.906-31,31s13.906,31,31,31s31-13.906,31-31S67.337,19.965,50.244,19.965z M50.244,21.965
		c7.636,0,14.588,2.973,19.772,7.814L50.467,49.328l0.539-8.84c0.017-0.275-0.081-0.545-0.27-0.746
		c-0.189-0.199-0.453-0.314-0.729-0.314H37.809l-3.485-10.135c-0.18-0.523-0.747-0.801-1.271-0.621
		c-0.522,0.18-0.8,0.748-0.62,1.271l3.262,9.484h-0.861c-0.275,0-0.539,0.115-0.729,0.314c-0.188,0.201-0.286,0.471-0.27,0.746
		l1.464,24.008l-6.242,6.242c-4.842-5.186-7.813-12.137-7.813-19.773C21.244,34.975,34.253,21.965,50.244,21.965z M35.896,41.428
		h0.487l5.328,15.49c-0.179,0.18-0.29,0.428-0.29,0.703v0.754l-4.233,4.232L35.896,41.428z M48.334,51.461l-0.181,0.18
		c-1.731,0.332-3.096,1.697-3.429,3.43l-1.142,1.143l-5.086-14.785h10.448L48.334,51.461z M41.421,61.203v2.047c0,0.553,0.447,1,1,1
		h1.813l0.504,1.469l0.336,0.977h-7.638l-0.087-1.422L41.421,61.203z M47.627,66.881c-0.232-0.166-0.429-0.381-0.592-0.631
		l-0.373-1.084l-0.002-0.018c-0.007-0.053-0.018-0.105-0.018-0.16V64.25h1.975h18.27v0.738c0,1.283-1.044,2.326-2.326,2.326H48.969
		C48.491,67.314,48.027,67.164,47.627,66.881z M67.887,62.25h-19.27h-2.975h-0.695h-1.526v-3.047l0.581-0.582h1.641h3.316h18.928
		h2.222v3.629H67.887z M66.887,56.621H48.959h-2.316V55.98l2.422-2.422h0.204h15.292c1.282,0,2.326,1.045,2.326,2.326V56.621z
		 M50.244,79.965c-7.636,0-14.588-2.971-19.772-7.813l4.991-4.99l0.036,0.594c0.032,0.529,0.47,0.939,0.998,0.939h10.279
		c0.668,0.398,1.417,0.619,2.193,0.619h15.592c2.386,0,4.326-1.939,4.326-4.326V64.25h2.222c0.553,0,1-0.447,1-1v-5.629
		c0-0.553-0.447-1-1-1h-2.222v-0.736c0-2.385-1.94-4.326-4.326-4.326H51.065L71.43,31.193c4.842,5.184,7.813,12.135,7.813,19.771
		C79.244,66.955,66.234,79.965,50.244,79.965z"/>
	<path d="M45.533,49.141c0.037,0.004,0.075,0.006,0.111,0.006c0.503,0,0.937-0.377,0.993-0.889l0.494-4.451
		c0.061-0.549-0.335-1.043-0.884-1.105c-0.553-0.061-1.044,0.336-1.104,0.885l-0.494,4.451
		C44.588,48.586,44.984,49.08,45.533,49.141z"/>
</g>
</svg>
